{
  "base_dir": "aws",
  "blueprint_service_slug": "ec2",
  "blueprint_resource_slug": "instance",
  "blueprint_module_name": "{{ cookiecutter.blueprint_service_slug | replace('-', '_') }}_{{ cookiecutter.blueprint_resource_slug | replace('-', '_') }}",
  "blueprint_pretty_name": "{{ cookiecutter.blueprint_module_name | replace('_', ' ') | title }}"
}
